%YAML 1.1
%TAG !u! tag:unity3d.com,2011:
--- !u!114 &11400000
MonoBehaviour:
  m_ObjectHideFlags: 0
  m_CorrespondingSourceObject: {fileID: 0}
  m_PrefabInstance: {fileID: 0}
  m_PrefabAsset: {fileID: 0}
  m_GameObject: {fileID: 0}
  m_Enabled: 1
  m_EditorHideFlags: 0
  m_Script: {fileID: 11500000, guid: 308621b8fa382a444b3a448334671093, type: 3}
  m_Name: MountainsLevel
  m_EditorClassIdentifier: 
  Name: Mountains
  Background: {fileID: 2900907575965529506, guid: dcdf605d406541241925b2c0b41354f3,
    type: 3}
  CoinsForWin: 11
  NPCFightersControllerSettings:
    count: 1
    fighterInfos:
    - position: {x: -16.5, y: 8, z: 0}
    - position: {x: 16.5, y: 8, z: 0}
    - position: {x: -23, y: 1.5, z: 0}
    - position: {x: 23, y: 1.5, z: 0}
    allowFighters: 010000000300000004000000
  BaseDuration: 60
  AdditionalDurationForFirstKill: 20
  NoKillsLoseDuration: 30
