%YAML 1.1
%TAG !u! tag:unity3d.com,2011:
--- !u!114 &11400000
MonoBehaviour:
  m_ObjectHideFlags: 0
  m_CorrespondingSourceObject: {fileID: 0}
  m_PrefabInstance: {fileID: 0}
  m_PrefabAsset: {fileID: 0}
  m_GameObject: {fileID: 0}
  m_Enabled: 1
  m_EditorHideFlags: 0
  m_Script: {fileID: 11500000, guid: 8a1bf9fbd1ef15349b81d2cf6f8b96f8, type: 3}
  m_Name: DevContentSettings
  m_EditorClassIdentifier: 
  enabledInTrainingRoom: 1
  devHitVisual: {fileID: 8751684472719617758, guid: 3626027476acda34f845c09f063dc457,
    type: 3}
  hitDuration: 5
  colorAlpha: 0.5
