%YAML 1.1
%TAG !u! tag:unity3d.com,2011:
--- !u!114 &11400000
MonoBehaviour:
  m_ObjectHideFlags: 0
  m_CorrespondingSourceObject: {fileID: 0}
  m_PrefabInstance: {fileID: 0}
  m_PrefabAsset: {fileID: 0}
  m_GameObject: {fileID: 0}
  m_Enabled: 1
  m_EditorHideFlags: 0
  m_Script: {fileID: 11500000, guid: b6334b9631e6a0f49acde106be195478, type: 3}
  m_Name: EndlessWar
  m_EditorClassIdentifier: 
  AbilityName: 4
  AbilityType: 0
  UISprite: {fileID: 21300000, guid: 3077ac3471fa5a14e8dca11f2099bdd2, type: 3}
  shouldShowText: 1
  ControlToStop: 
  maxCount: 3
  percentToIncreaseHealth: 0.1
  deathRingDurationIncreasePerCount: 0.1
