%YAML 1.1
%TAG !u! tag:unity3d.com,2011:
--- !u!114 &11400000
MonoBehaviour:
  m_ObjectHideFlags: 0
  m_CorrespondingSourceObject: {fileID: 0}
  m_PrefabInstance: {fileID: 0}
  m_PrefabAsset: {fileID: 0}
  m_GameObject: {fileID: 0}
  m_Enabled: 1
  m_EditorHideFlags: 0
  m_Script: {fileID: 11500000, guid: 9567cdab4f26ea74ba1bd0738f217cdf, type: 3}
  m_Name: ExecutionerAxe
  m_EditorClassIdentifier: 
  AbilityName: 3
  AbilityType: 0
  UISprite: {fileID: 21300000, guid: a4f47ef7b849cb14ab869e4d24342a94, type: 3}
  shouldShowText: 0
  ControlToStop: 010000000400000005000000
  CoolDown: 9
  IsPreparedForUse: 0
  skeletonDataAsset: {fileID: 11400000, guid: 0b743067cb7d4954090933f84b9ad36f, type: 2}
  abilityAnimation: ability_smash_02
  controlDisableAfterUseDuration: 0.5
  ResponceType: 2
  UIAnotherSprite: {fileID: 21300000, guid: b0fa3aaf0653c66408e40a27d82115e3, type: 3}
  onPressAbilityAnimation: ability_smash_start
  idleAbilityAnimation: ability_smash_aim
  onClickAbilityAnimations:
  - ability_smash_01
  - ability_smash_02
  secondForSecondPhase: 0.3
  FirstPhaseData:
    shouldOverKnockOnAction: 0
    DamageValue:
      damageType: 0
      MinHitDamage: 10
      MaxHitDamage: 10
      HitImpuls: {x: 0, y: 0}
      ShouldKnockOver: 0
      HitBoxAppearDelay: 0
      HitMove: {x: 1, y: 0}
      InputDisableOnHitDuration: 0
    HitDuration: 0.3
    Debuf:
    - Type: 1
      Duration: 5
      TotalDamage: 20
    Control:
    - Type: 2
      Duration: 3
  SecondPhaseData:
    shouldOverKnockOnAction: 0
    DamageValue:
      damageType: 0
      MinHitDamage: 30
      MaxHitDamage: 30
      HitImpuls: {x: 0, y: 60}
      ShouldKnockOver: 1
      HitBoxAppearDelay: 0
      HitMove: {x: 1, y: 0}
      InputDisableOnHitDuration: 0
    HitDuration: 0.3
    Debuf:
    - Type: 1
      Duration: 4
      TotalDamage: 1
    Control:
    - Type: 2
      Duration: 3
    - Type: 7
      Duration: 3
    - Type: 7
      Duration: 3
  executionerAxePrefab: {fileID: 200284937722811859, guid: 79b203413d31c1f4f81b73920160dbda,
    type: 3}
