%YAML 1.1
%TAG !u! tag:unity3d.com,2011:
--- !u!114 &11400000
MonoBehaviour:
  m_ObjectHideFlags: 0
  m_CorrespondingSourceObject: {fileID: 0}
  m_PrefabInstance: {fileID: 0}
  m_PrefabAsset: {fileID: 0}
  m_GameObject: {fileID: 0}
  m_Enabled: 1
  m_EditorHideFlags: 0
  m_Script: {fileID: 11500000, guid: 0b75185138ffce746a1bc0e78d6c3fb6, type: 3}
  m_Name: DarkAuraAbility
  m_EditorClassIdentifier: 
  AbilityName: 11
  AbilityType: 0
  UISprite: {fileID: 21300000, guid: 0f1a36f1162637349a957ed7c0e82f78, type: 3}
  shouldShowText: 0
  ControlToStop: 
  CoolDown: 8
  IsPreparedForUse: 0
  skeletonDataAsset: {fileID: 11400000, guid: d20d5117c10aa5e4391fe1a8fec751db, type: 2}
  abilityAnimation: ability_dark_aura
  controlDisableAfterUseDuration: 1.25
  ResponceType: 1
  data:
    FirstPhaseDuration: 0.3
    EndScaleDuration: {x: 30, y: 30, z: 30}
    SecondPhaseDuration: 0.3
    damageValue:
      damageType: 1
      MinHitDamage: 5
      MaxHitDamage: 5
      HitImpuls: {x: 0, y: 0}
      ShouldKnockOver: 0
      HitBoxAppearDelay: 0
      HitMove: {x: 1, y: 0}
      InputDisableOnHitDuration: 0
    controlTypes:
    - Type: 7
      Duration: 1
    - Type: 2
      Duration: 2
    damageSecondPhaseValue:
      damageType: 1
      MinHitDamage: 25
      MaxHitDamage: 25
      HitImpuls: {x: 0, y: 0}
      ShouldKnockOver: 1
      HitBoxAppearDelay: 0
      HitMove: {x: 1, y: 0}
      InputDisableOnHitDuration: 0
    secondControlTypes:
    - Type: 1
      Duration: 1
    gripForce: 8
  witchDarkAuraPrefab: {fileID: 1081959871117304981, guid: aad0e300027fa304dad4b5e7c0dd7b31,
    type: 3}
