%YAML 1.1
%TAG !u! tag:unity3d.com,2011:
--- !u!114 &11400000
MonoBehaviour:
  m_ObjectHideFlags: 0
  m_CorrespondingSourceObject: {fileID: 0}
  m_PrefabInstance: {fileID: 0}
  m_PrefabAsset: {fileID: 0}
  m_GameObject: {fileID: 0}
  m_Enabled: 1
  m_EditorHideFlags: 0
  m_Script: {fileID: 11500000, guid: 8f77c5c69e0b100479fdf240f2a04540, type: 3}
  m_Name: Target Data
  m_EditorClassIdentifier: 
  Name: 8
  CombatData: {fileID: 11400000, guid: 72f626b5803149f42b68d742b057dcfd, type: 2}
  MovementData: {fileID: 11400000, guid: 7ef3e1c1998bbe649b9990bae6b677d0, type: 2}
  HealthData: {fileID: 11400000, guid: a93b87e73c85b924280c6e155eb6d3ab, type: 2}
  AbilitiesData: {fileID: 11400000, guid: b115fe39a80b3ca49b122b78466c29c0, type: 2}
  VisualData: {fileID: 11400000, guid: 568ca47963adb184b82d8cc60c04603e, type: 2}
